Apple       8p      2013    603     735.8   true    Netinkami gamybos metai, turi būti [2014:2019]
Zpple       6p      2013    603     735.8   true    Netinkami gamybos metai, turi būti [2014:2019]
Google      pixel2  2016    95      1072.0  false   Kaina per brangi, turėtų būti: 72.02152478177845€ pigesnė
Google      pixel2  2015    637     169.6   true
Microsoft   3310    2010    518     788.0   false   Netinkami gamybos metai, turi būti [2014:2019]
Spple       8       2018    268     1000.0   false
Huawai      p10     2017    438     750.1   true
AAAAA       p10     2017    438     750.1   true
Motorola    qaz     2011    789     1232.4   true
NOkia       pixel   2017    128     720.0   false
Sony        asd     1998    64      950.0   true    Netinkami gamybos metai, turi būti [2014:2019]
Apple       8p      2013    603     735.8   true    Netinkami gamybos metai, turi būti [2014:2019]
